…
new_US_deaths_cases$submission_date = as.Date(new_US_deaths_cases$submission_date,
                                              format="%m/%d/%Y")

new_US_deaths_cases
```

    ## # A tibble: 623 × 3
    ##    submission_date total_new_cases total_new_deaths
    ##    <date>                    <dbl>            <dbl>
    ##  1 2021-01-01               210546             3128
    ##  2 2021-01-02               198578             2596
    ##  3 2021-01-03               176774             2510
    ##  4 2021-01-04               192485             2846
    ##  5 2021-01-05               242515             3707
    ##  6 2021-01-06               286542             4040
    ##  7 2021-01-07               281017             3948
    ##  8 2021-01-08               285602             3882
    ##  9 2021-01-09               238120             3347
    ## 10 2021-01-10               200888             2734
    ## # … with 613 more rows
…
new_US_vaccinations$Date = as.Date(new_US_vaccinations$Date,
                                              format="%m/%d/%Y")

new_US_vaccinations
```

    ## # A tibble: 297 × 11
    ##    Date       Location Series_Complete_Yes Series_Complete_P… Series_Complete_1…
    ##    <date>     <chr>                  <dbl>              <dbl>              <dbl>
    ##  1 2021-10-05 US                 186060146               56                 65.6
    ##  2 2021-10-04 US                 185788098               56                 65.5
    ##  3 2021-10-03 US                 185492579               55.9               65.4
    ##  4 2021-10-02 US                 185143698               55.8               65.2
    ##  5 2021-10-01 US                 184852416               55.7               65.1
    ##  6 2021-09-30 US                 184601450               55.6               65.1
    ##  7 2021-09-29 US                 184335263               55.5               65  
    ##  8 2021-09-28 US                 184065824               55.5               64.9
    ##  9 2021-09-27 US                 183888907               55.4               64.8
    ## 10 2021-09-26 US                 183670870               55.3               64.7
    ## # … with 287 more rows, and 6 more variables:
    ## #   Series_Complete_18PlusPop_Pct <dbl>, Series_Complete_65PlusPop_Pct <dbl>,
    ## #   Series_Complete_Janssen <dbl>, Series_Complete_Moderna <dbl>,
    ## #   Series_Complete_Pfizer <dbl>, Series_Complete_Unk_Manuf <dbl>
…
